module bitbucket.org/vbus/vbus.go

go 1.13

require (
	github.com/alecthomas/jsonschema v0.0.0-20200127222324-dd4542c1f589
	github.com/cenkalti/backoff v2.2.1+incompatible // indirect
	github.com/godbus/dbus v4.1.0+incompatible
	github.com/grandcat/zeroconf v0.0.0-20190424104450-85eadb44205c
	github.com/mattn/go-colorable v0.1.7 // indirect
	github.com/mgutz/ansi v0.0.0-20200706080929-d51e80ef957d // indirect
	github.com/miekg/dns v1.1.27 // indirect
	github.com/nats-io/nats-server/v2 v2.1.2 // indirect
	github.com/nats-io/nats.go v1.9.1
	github.com/onsi/ginkgo v1.14.0 // indirect
	github.com/pkg/errors v0.8.1
	github.com/sirupsen/logrus v1.4.2
	github.com/stretchr/testify v1.3.1-0.20190311161405-34c6fa2dc709
	github.com/x-cray/logrus-prefixed-formatter v0.5.2
	github.com/xeipuuv/gojsonschema v1.2.0
	golang.org/x/crypto v0.0.0-20200109152110-61a87790db17
	gotest.tools v2.2.0+incompatible
	robpike.io/filter v0.0.0-20150108201509-2984852a2183
)
